TB/sim/ethmac_fd_tx_rx_test.txt
# vsim -c -voptargs="+acc" -coverage ethmac_fd_tx_rx_test "+UVM_TESTNAME=ethmac_fd_tx_rx_test" -l ethmac_fd_tx_rx_test.txt -do "coverage save -onexit ethmac_fd_tx_rx_test.ucdb" -do "run -all" -do "quit" 
# Start time: 23:53:56 on Jan 13,2026
# Loading C:/Users/HP/AppData/Local/Temp\HP@SAISURYA_dpi_22840\win64_gcc-4.5.0\export_tramp.dll
# //  Questa Sim-64
# //  Version 10.7c win64 Aug 18 2018
# //
# //  Copyright 1991-2018 Mentor Graphics Corporation
# //  All Rights Reserved.
# //
# //  QuestaSim and its associated documentation contain trade
# //  secrets and commercial or financial information that are the property of
# //  Mentor Graphics Corporation and are privileged, confidential,
# //  and exempt from disclosure under the Freedom of Information Act,
# //  5 U.S.C. Section 552. Furthermore, this information
# //  is prohibited from disclosure under the Trade Secrets Act,
# //  18 U.S.C. Section 1905.
# //
# Loading sv_std.std
# Loading work.uvm_pkg(fast)
# Loading work.top_sv_unit(fast)
# ** Note: (vsim-8785) UVM-aware debugging capabilities will be disabled since no compiled "questa_uvm_pkg" can be found.
# This also means that later if you turn on UVM-aware debugging your debug simulations may have
# different random seeds from your non-debug simulations.
# Loading work.top(fast)
# Loading work.wb_proc_intf(fast)
# Loading work.wb_mem_intf(fast)
# Loading work.phy_intf(fast)
# Loading work.mii_intf(fast)
# ** Warning: (vsim-3764) Stand-alone call to function 'read_by_name' treated as implicit void cast.
#    Time: 0 ns  Iteration: 0  Region: /top_sv_unit File: ../wb_mem/memory.sv Line: 8
# ** Warning: (vsim-3764) Stand-alone call to function 'read_by_name' treated as implicit void cast.
#    Time: 0 ns  Iteration: 0  Region: /top_sv_unit File: ../wb_proc/wb_proc_mon.sv Line: 9
# ** Warning: (vsim-3764) Stand-alone call to function 'read_by_name' treated as implicit void cast.
#    Time: 0 ns  Iteration: 0  Region: /top_sv_unit File: ../wb_mem/wb_mem_mon.sv Line: 10
# ** Warning: (vsim-3764) Stand-alone call to function 'read_by_name' treated as implicit void cast.
#    Time: 0 ns  Iteration: 0  Region: /top_sv_unit File: ../phy/phy_rx_mon.sv Line: 10
# ** Warning: (vsim-3764) Stand-alone call to function 'read_by_name' treated as implicit void cast.
#    Time: 0 ns  Iteration: 0  Region: /top_sv_unit File: ../phy/phy_tx_mon.sv Line: 12
# ** Warning: (vsim-3764) Stand-alone call to function 'read_by_name' treated as implicit void cast.
#    Time: 0 ns  Iteration: 0  Region: /top_sv_unit::phy_rx_drv File: ../phy/phy_rx_drv.sv Line: 9
# ** Warning: (vsim-3764) Stand-alone call to function 'read_by_name' treated as implicit void cast.
#    Time: 0 ns  Iteration: 0  Region: /top_sv_unit::phy_rx_drv File: ../phy/phy_rx_drv.sv Line: 10
# ** Warning: (vsim-3764) Stand-alone call to function 'read_by_name' treated as implicit void cast.
#    Time: 0 ns  Iteration: 0  Region: /top_sv_unit::phy_rx_drv File: ../phy/phy_rx_drv.sv Line: 11
# ** Warning: (vsim-3764) Stand-alone call to function 'read_by_name' treated as implicit void cast.
#    Time: 0 ns  Iteration: 0  Region: /top_sv_unit::phy_tx_drv File: ../phy/phy_tx_drv.sv Line: 14
# ** Warning: (vsim-3764) Stand-alone call to function 'read_by_name' treated as implicit void cast.
#    Time: 0 ns  Iteration: 0  Region: /top_sv_unit::phy_tx_drv File: ../phy/phy_tx_drv.sv Line: 15
# ** Warning: (vsim-3764) Stand-alone call to function 'read_by_name' treated as implicit void cast.
#    Time: 0 ns  Iteration: 0  Region: /top_sv_unit::phy_tx_drv File: ../phy/phy_tx_drv.sv Line: 16
# ** Note: (vsim-7082) For C/C++ auto compile, choosing compiler C:\Users\HP\Downloads\questasim-gcc-4.5.0-mingw64vc12\gcc-4.5.0-mingw64vc12\bin\g++.exe set from the PATH environment variable.
# Compiling C:/Users/HP/AppData/Local/Temp\HP@SAISURYA_dpi_22840\win64_gcc-4.5.0\exportwrapper.c
# Loading C:/Users/HP/AppData/Local/Temp\HP@SAISURYA_dpi_22840\win64_gcc-4.5.0\vsim_auto_compile.dll
# coverage save -onexit ethmac_fd_tx_rx_test.ucdb
# run -all
# UVM_INFO C:/uvm_1.2/uvm-1.2-master/src/base/uvm_root.svh(392) @ 0: reporter [UVM/RELNOTES] 
# ----------------------------------------------------------------
# UVM-1.2
# (C) 2007-2014 Mentor Graphics Corporation
# (C) 2007-2014 Cadence Design Systems, Inc.
# (C) 2006-2014 Synopsys, Inc.
# (C) 2011-2013 Cypress Semiconductor Corp.
# (C) 2013-2014 NVIDIA Corporation
# ----------------------------------------------------------------
# 
#   ***********       IMPORTANT RELEASE NOTES         ************
# 
#   You are using a version of the UVM library that has been compiled
#   with `UVM_NO_DEPRECATED undefined.
#   See http://www.eda.org/svdb/view.php?id=3313 for more details.
# 
#   You are using a version of the UVM library that has been compiled
#   with `UVM_OBJECT_DO_NOT_NEED_CONSTRUCTOR undefined.
#   See http://www.eda.org/svdb/view.php?id=3770 for more details.
# 
#       (Specify +UVM_NO_RELNOTES to turn off this notice)
# 
# UVM_INFO @ 0: reporter [RNTST] Running test ethmac_fd_tx_rx_test...
# UVM_INFO C:/uvm_1.2/uvm-1.2-master/src/base/uvm_root.svh(579) @ 0: reporter [UVMTOP] UVM testbench topology:
# --------------------------------------------------------------
# Name                       Type                    Size  Value
# --------------------------------------------------------------
# uvm_test_top               ethmac_fd_tx_rx_test    -     @352 
#   env                      ethmac_env              -     @368 
#     mem_agent_i            wb_mem_agent            -     @392 
#       memory               memory                  -     @578 
#       mon                  wb_mem_mon              -     @587 
#         ap_port            uvm_analysis_port       -     @598 
#     mii_agent_i            mii_agent               -     @428 
#     phy_rx_agent_i         phy_rx_agent            -     @410 
#       drv                  phy_rx_drv              -     @610 
#         rsp_port           uvm_analysis_port       -     @629 
#         seq_item_port      uvm_seq_item_pull_port  -     @619 
#       mon                  phy_rx_mon              -     @776 
#         ap_port            uvm_analysis_port       -     @789 
#       sqr                  uvm_sequencer           -     @639 
#         rsp_export         uvm_analysis_export     -     @648 
#         seq_item_export    uvm_seq_item_pull_imp   -     @766 
#         arbitration_queue  array                   0     -    
#         lock_queue         array                   0     -    
#         num_last_reqs      integral                32    'd1  
#         num_last_rsps      integral                32    'd1  
#     phy_tx_agent_i         phy_tx_agent            -     @401 
#       drv                  phy_tx_drv              -     @805 
#         rsp_port           uvm_analysis_port       -     @824 
#         seq_item_port      uvm_seq_item_pull_port  -     @814 
#       mon                  phy_tx_mon              -     @834 
#         ap_port            uvm_analysis_port       -     @848 
#     proc_agent_i           wb_proc_agent           -     @383 
#       cov                  wb_proc_cov             -     @1034
#         analysis_imp       uvm_analysis_imp        -     @1043
#       drv                  wb_proc_drv             -     @859 
#         rsp_port           uvm_analysis_port       -     @878 
#         seq_item_port      uvm_seq_item_pull_port  -     @868 
#       mon                  wb_proc_mon             -     @1025
#         ap_port            uvm_analysis_port       -     @1055
#       sqr                  uvm_sequencer           -     @888 
#         rsp_export         uvm_analysis_export     -     @897 
#         seq_item_export    uvm_seq_item_pull_imp   -     @1015
#         arbitration_queue  array                   0     -    
#         lock_queue         array                   0     -    
#         num_last_reqs      integral                32    'd1  
#         num_last_rsps      integral                32    'd1  
#     sbd                    mac_sbd                 -     @419 
#       imp_mem              uvm_analysis_imp_mem    -     @1080
#       imp_proc             uvm_analysis_imp_proc   -     @1070
#       imp_rx               uvm_analysis_imp_rx     -     @1100
#       imp_tx               uvm_analysis_imp_tx     -     @1090
# --------------------------------------------------------------
# 
# sbd: 0, rx_frame is null
# SBD:405 rd_memoryq tx data=12153524
# SBD:415 rd_memoryq tx data=6b97b0d
# SBD:425 rd_memoryq tx data=f3e301
# SBD:435 rd_memoryq tx data=76d457ed
# SBD:455 rd_memoryq tx data=e2f784c5
# SBD:465 rd_memoryq tx data=8932d612
# SBD:475 rd_memoryq tx data=f4007ae8
# SBD:485 rd_memoryq tx data=96ab582d
# SBD:505 rd_memoryq tx data=c03b2280
# SBD:515 rd_memoryq tx data=cb203e96
# SBD:525 rd_memoryq tx data=359fdd6b
# SBD:535 rd_memoryq tx data=effe91d
# SBD:555 rd_memoryq tx data=e5730aca
# SBD:565 rd_memoryq tx data=20c4b341
# SBD:575 rd_memoryq tx data=75c50deb
# rx_drv: 5 SBD:585 rd_memoryq tx data=de7502bc
# rx_drv: 5 phy_rx_mon: 621: vif.mrxd_pad_i=5
# rx_drv: 5 phy_rx_mon: 661: vif.mrxd_pad_i=5
# rx_drv: 5 phy_rx_mon: 701: vif.mrxd_pad_i=5
# rx_drv: 5 phy_rx_mon: 741: vif.mrxd_pad_i=5
# SBD:755 rd_memoryq tx data=42f24185
# rx_drv: 5 phy_rx_mon: 781: vif.mrxd_pad_i=5
# rx_drv: 5 phy_rx_mon: 821: vif.mrxd_pad_i=5
# rx_drv: 5 phy_rx_mon: 861: vif.mrxd_pad_i=5
# rx_drv: 5 phy_rx_mon: 901: vif.mrxd_pad_i=5
# rx_drv: 5 phy_rx_mon: 941: vif.mrxd_pad_i=5
# rx_drv: 5 phy_rx_mon: 981: vif.mrxd_pad_i=5
# rx_drv: 5 phy_rx_mon: 1021: vif.mrxd_pad_i=5
# rx_drv: 5 phy_rx_mon: 1061: vif.mrxd_pad_i=5
# rx_drv: 5 phy_rx_mon: 1101: vif.mrxd_pad_i=5
# rx_drv: 5 phy_rx_mon: 1141: vif.mrxd_pad_i=5
# rx_drv: d phy_rx_mon: 1181: vif.mrxd_pad_i=5
# rx_drv: 3 phy_rx_mon: 1221: vif.mrxd_pad_i=d
# rx_drv: 4 phy_rx_mon: 1261: vif.mrxd_pad_i=3
# rx_drv: 7 phy_rx_mon: 1301: vif.mrxd_pad_i=4
# rx_drv: d phy_rx_mon: 1341: vif.mrxd_pad_i=7
# rx_drv: 8 phy_rx_mon: 1381: vif.mrxd_pad_i=d
# rx_drv: 3 phy_rx_mon: 1421: vif.mrxd_pad_i=8
# rx_drv: f phy_rx_mon: 1461: vif.mrxd_pad_i=3
# rx_drv: 6 phy_rx_mon: 1501: vif.mrxd_pad_i=f
# rx_drv: 3 phy_rx_mon: 1541: vif.mrxd_pad_i=6
# rx_drv: f phy_rx_mon: 1581: vif.mrxd_pad_i=3
# rx_drv: f phy_rx_mon: 1621: vif.mrxd_pad_i=f
# rx_drv: 4 phy_rx_mon: 1661: vif.mrxd_pad_i=f
# rx_drv: a phy_rx_mon: 1701: vif.mrxd_pad_i=4
# rx_drv: a phy_rx_mon: 1741: vif.mrxd_pad_i=a
# SBD:1755 wr_queue rx data=43d7386f
# SBD:1775 rd_memoryq tx data=bf23327e
# rx_drv: 9 phy_rx_mon: 1781: vif.mrxd_pad_i=a
# rx_drv: c phy_rx_mon: 1821: vif.mrxd_pad_i=9
# rx_drv: 4 phy_rx_mon: 1861: vif.mrxd_pad_i=c
# rx_drv: 7 phy_rx_mon: 1901: vif.mrxd_pad_i=4
# rx_drv: 1 phy_rx_mon: 1941: vif.mrxd_pad_i=7
# rx_drv: e phy_rx_mon: 1981: vif.mrxd_pad_i=1
# rx_drv: 9 phy_rx_mon: 2021: vif.mrxd_pad_i=e
# rx_drv: 0 phy_rx_mon: 2061: vif.mrxd_pad_i=9
# SBD:2075 wr_queue rx data=f34faac9
# SBD:2095 rd_memoryq tx data=31230762
# rx_drv: a phy_rx_mon: 2101: vif.mrxd_pad_i=0
# rx_drv: 7 phy_rx_mon: 2141: vif.mrxd_pad_i=a
# rx_drv: 8 phy_rx_mon: 2181: vif.mrxd_pad_i=7
# rx_drv: 2 phy_rx_mon: 2221: vif.mrxd_pad_i=8
# rx_drv: 5 phy_rx_mon: 2261: vif.mrxd_pad_i=2
# rx_drv: 2 phy_rx_mon: 2301: vif.mrxd_pad_i=5
# rx_drv: e phy_rx_mon: 2341: vif.mrxd_pad_i=2
# rx_drv: 6 phy_rx_mon: 2381: vif.mrxd_pad_i=e
# SBD:2395 wr_queue rx data=74e1097a
# SBD:2415 rd_memoryq tx data=7c6da9f8
# rx_drv: e phy_rx_mon: 2421: vif.mrxd_pad_i=6
# rx_drv: 4 phy_rx_mon: 2461: vif.mrxd_pad_i=e
# rx_drv: 7 phy_rx_mon: 2501: vif.mrxd_pad_i=4
# rx_drv: 5 phy_rx_mon: 2541: vif.mrxd_pad_i=7
# rx_drv: a phy_rx_mon: 2581: vif.mrxd_pad_i=5
# rx_drv: b phy_rx_mon: 2621: vif.mrxd_pad_i=a
# rx_drv: 5 phy_rx_mon: 2661: vif.mrxd_pad_i=b
# rx_drv: 1 phy_rx_mon: 2701: vif.mrxd_pad_i=5
# SBD:2715 wr_queue rx data=28256e4e
# SBD:2735 rd_memoryq tx data=adcbc05b
# rx_drv: 9 phy_rx_mon: 2741: vif.mrxd_pad_i=1
# rx_drv: 4 phy_rx_mon: 2781: vif.mrxd_pad_i=9
# rx_drv: e phy_rx_mon: 2821: vif.mrxd_pad_i=4
# rx_drv: b phy_rx_mon: 2861: vif.mrxd_pad_i=e
# rx_drv: f phy_rx_mon: 2901: vif.mrxd_pad_i=b
# rx_drv: b phy_rx_mon: 2941: vif.mrxd_pad_i=f
# rx_drv: f phy_rx_mon: 2981: vif.mrxd_pad_i=b
# rx_drv: 0 phy_rx_mon: 3021: vif.mrxd_pad_i=f
# SBD:3035 wr_queue rx data=57ba1549
# SBD:3055 rd_memoryq tx data=ebfec0d7
# rx_drv: f phy_rx_mon: 3061: vif.mrxd_pad_i=0
# rx_drv: 6 phy_rx_mon: 3101: vif.mrxd_pad_i=f
# rx_drv: e phy_rx_mon: 3141: vif.mrxd_pad_i=6
# rx_drv: c phy_rx_mon: 3181: vif.mrxd_pad_i=e
# rx_drv: 1 phy_rx_mon: 3221: vif.mrxd_pad_i=c
# rx_drv: b phy_rx_mon: 3261: vif.mrxd_pad_i=1
# rx_drv: 2 phy_rx_mon: 3301: vif.mrxd_pad_i=b
# rx_drv: b phy_rx_mon: 3341: vif.mrxd_pad_i=2
# SBD:3355 wr_queue rx data=bebf0f6f
# SBD:3375 rd_memoryq tx data=e12ccec2
# rx_drv: 0 phy_rx_mon: 3381: vif.mrxd_pad_i=b
# rx_drv: a phy_rx_mon: 3421: vif.mrxd_pad_i=0
# rx_drv: 0 phy_rx_mon: 3461: vif.mrxd_pad_i=a
# rx_drv: 4 phy_rx_mon: 3501: vif.mrxd_pad_i=0
# rx_drv: b phy_rx_mon: 3541: vif.mrxd_pad_i=4
# rx_drv: 2 phy_rx_mon: 3581: vif.mrxd_pad_i=b
# rx_drv: c phy_rx_mon: 3621: vif.mrxd_pad_i=2
# rx_drv: f phy_rx_mon: 3661: vif.mrxd_pad_i=c
# SBD:3675 wr_queue rx data=ceb1b2a0
# SBD:3695 rd_memoryq tx data=90cdb12
# rx_drv: 1 phy_rx_mon: 3701: vif.mrxd_pad_i=f
# rx_drv: 6 phy_rx_mon: 3741: vif.mrxd_pad_i=1
# rx_drv: a phy_rx_mon: 3781: vif.mrxd_pad_i=6
# rx_drv: d phy_rx_mon: 3821: vif.mrxd_pad_i=a
# rx_drv: 3 phy_rx_mon: 3861: vif.mrxd_pad_i=d
# rx_drv: e phy_rx_mon: 3901: vif.mrxd_pad_i=3
# rx_drv: c phy_rx_mon: 3941: vif.mrxd_pad_i=e
# rx_drv: a phy_rx_mon: 3981: vif.mrxd_pad_i=c
# SBD:3995 wr_queue rx data=402bfc61
# rx_drv: 1 phy_rx_mon: 4021: vif.mrxd_pad_i=a
# rx_drv: 3 phy_rx_mon: 4061: vif.mrxd_pad_i=1
# rx_drv: d phy_rx_mon: 4101: vif.mrxd_pad_i=3
# rx_drv: 8 phy_rx_mon: 4141: vif.mrxd_pad_i=d
# rx_drv: 8 phy_rx_mon: 4181: vif.mrxd_pad_i=8
# rx_drv: f phy_rx_mon: 4221: vif.mrxd_pad_i=8
# rx_drv: b phy_rx_mon: 4261: vif.mrxd_pad_i=f
# rx_drv: 7 phy_rx_mon: 4301: vif.mrxd_pad_i=b
# SBD:4315 wr_queue rx data=dae3ac31
# rx_drv: 8 phy_rx_mon: 4341: vif.mrxd_pad_i=7
# rx_drv: a phy_rx_mon: 4381: vif.mrxd_pad_i=8
# rx_drv: 7 phy_rx_mon: 4421: vif.mrxd_pad_i=a
# rx_drv: d phy_rx_mon: 4461: vif.mrxd_pad_i=7
# rx_drv: 1 phy_rx_mon: 4501: vif.mrxd_pad_i=d
# rx_drv: 0 phy_rx_mon: 4541: vif.mrxd_pad_i=1
# rx_drv: 8 phy_rx_mon: 4581: vif.mrxd_pad_i=0
# rx_drv: 3 phy_rx_mon: 4621: vif.mrxd_pad_i=8
# SBD:4635 wr_queue rx data=8df87ba8
# rx_drv: 0 phy_rx_mon: 4661: vif.mrxd_pad_i=3
# rx_drv: a phy_rx_mon: 4701: vif.mrxd_pad_i=0
# rx_drv: 5 phy_rx_mon: 4741: vif.mrxd_pad_i=a
# rx_drv: 5 phy_rx_mon: 4781: vif.mrxd_pad_i=5
# rx_drv: 9 phy_rx_mon: 4821: vif.mrxd_pad_i=5
# rx_drv: 3 phy_rx_mon: 4861: vif.mrxd_pad_i=9
# rx_drv: f phy_rx_mon: 4901: vif.mrxd_pad_i=3
# rx_drv: 7 phy_rx_mon: 4941: vif.mrxd_pad_i=f
# SBD:4955 wr_queue rx data=d70138a0
# rx_drv: 4 phy_rx_mon: 4981: vif.mrxd_pad_i=7
# rx_drv: 6 phy_rx_mon: 5021: vif.mrxd_pad_i=4
# rx_drv: 3 phy_rx_mon: 5061: vif.mrxd_pad_i=6
# rx_drv: 0 phy_rx_mon: 5101: vif.mrxd_pad_i=3
# rx_drv: d phy_rx_mon: 5141: vif.mrxd_pad_i=0
# rx_drv: a phy_rx_mon: 5181: vif.mrxd_pad_i=d
# rx_drv: 3 phy_rx_mon: 5221: vif.mrxd_pad_i=a
# rx_drv: 0 phy_rx_mon: 5261: vif.mrxd_pad_i=3
# SBD:5275 wr_queue rx data=55397f64
# rx_drv: c phy_rx_mon: 5301: vif.mrxd_pad_i=0
# rx_drv: 3 phy_rx_mon: 5341: vif.mrxd_pad_i=c
# rx_drv: b phy_rx_mon: 5381: vif.mrxd_pad_i=3
# rx_drv: 4 phy_rx_mon: 5421: vif.mrxd_pad_i=b
# rx_drv: 8 phy_rx_mon: 5461: vif.mrxd_pad_i=4
# rx_drv: 4 phy_rx_mon: 5501: vif.mrxd_pad_i=8
# rx_drv: 7 phy_rx_mon: 5541: vif.mrxd_pad_i=4
# rx_drv: b phy_rx_mon: 5581: vif.mrxd_pad_i=7
# SBD:5595 wr_queue rx data=3ad033c
# rx_drv: 8 phy_rx_mon: 5621: vif.mrxd_pad_i=b
# rx_drv: a phy_rx_mon: 5661: vif.mrxd_pad_i=8
# rx_drv: a phy_rx_mon: 5701: vif.mrxd_pad_i=a
# rx_drv: 5 phy_rx_mon: 5741: vif.mrxd_pad_i=a
# rx_drv: 3 phy_rx_mon: 5781: vif.mrxd_pad_i=5
# rx_drv: 5 phy_rx_mon: 5821: vif.mrxd_pad_i=3
# rx_drv: a phy_rx_mon: 5861: vif.mrxd_pad_i=5
# rx_drv: 7 phy_rx_mon: 5901: vif.mrxd_pad_i=a
# SBD:5915 wr_queue rx data=4b48b7a8
# rx_drv: 6 phy_rx_mon: 5941: vif.mrxd_pad_i=7
# rx_drv: 1 phy_rx_mon: 5981: vif.mrxd_pad_i=6
# rx_drv: f phy_rx_mon: 6021: vif.mrxd_pad_i=1
# rx_drv: 8 phy_rx_mon: 6061: vif.mrxd_pad_i=f
# rx_drv: f phy_rx_mon: 6101: vif.mrxd_pad_i=8
# rx_drv: b phy_rx_mon: 6141: vif.mrxd_pad_i=f
# rx_drv: c phy_rx_mon: 6181: vif.mrxd_pad_i=b
# rx_drv: 9 phy_rx_mon: 6221: vif.mrxd_pad_i=c
# SBD:6235 wr_queue rx data=5a537a16
# rx_drv: 6 phy_rx_mon: 6261: vif.mrxd_pad_i=9
# rx_drv: 7 phy_rx_mon: 6301: vif.mrxd_pad_i=6
# rx_drv: 8 phy_rx_mon: 6341: vif.mrxd_pad_i=7
# rx_drv: 8 phy_rx_mon: 6381: vif.mrxd_pad_i=8
# rx_drv: 2 phy_rx_mon: 6421: vif.mrxd_pad_i=8
# rx_drv: 4 phy_rx_mon: 6461: vif.mrxd_pad_i=2
# rx_drv: 4 phy_rx_mon: 6501: vif.mrxd_pad_i=4
# rx_drv: 6 phy_rx_mon: 6541: vif.mrxd_pad_i=4
# SBD:6555 wr_queue rx data=8fbf9c76
# rx_drv: e phy_rx_mon: 6581: vif.mrxd_pad_i=6
# rx_drv: 5 phy_rx_mon: 6621: vif.mrxd_pad_i=e
# rx_drv: 0 phy_rx_mon: 6661: vif.mrxd_pad_i=5
# rx_drv: 8 phy_rx_mon: 6701: vif.mrxd_pad_i=0
# rx_drv: 2 phy_rx_mon: 6741: vif.mrxd_pad_i=8
# rx_drv: a phy_rx_mon: 6781: vif.mrxd_pad_i=2
# rx_drv: f phy_rx_mon: 6821: vif.mrxd_pad_i=a
# rx_drv: a phy_rx_mon: 6861: vif.mrxd_pad_i=f
# SBD:6875 wr_queue rx data=8842645e
# rx_drv: 2 phy_rx_mon: 6901: vif.mrxd_pad_i=a
# rx_drv: c phy_rx_mon: 6941: vif.mrxd_pad_i=2
# rx_drv: 6 phy_rx_mon: 6981: vif.mrxd_pad_i=c
# rx_drv: f phy_rx_mon: 7021: vif.mrxd_pad_i=6
# rx_drv: 0 phy_rx_mon: 7061: vif.mrxd_pad_i=f
# rx_drv: 7 phy_rx_mon: 7101: vif.mrxd_pad_i=0
# rx_drv: 5 phy_rx_mon: 7141: vif.mrxd_pad_i=7
# rx_drv: 2 phy_rx_mon: 7181: vif.mrxd_pad_i=5
# SBD:7195 wr_queue rx data=80a2afc2
# rx_drv: 8 phy_rx_mon: 7221: vif.mrxd_pad_i=2
# rx_drv: b phy_rx_mon: 7261: vif.mrxd_pad_i=8
# rx_drv: 7 phy_rx_mon: 7301: vif.mrxd_pad_i=b
# rx_drv: e phy_rx_mon: 7341: vif.mrxd_pad_i=7
# rx_drv: 9 phy_rx_mon: 7381: vif.mrxd_pad_i=e
# rx_drv: 0 phy_rx_mon: 7421: vif.mrxd_pad_i=9
# rx_drv: 9 phy_rx_mon: 7461: vif.mrxd_pad_i=0
# rx_drv: e phy_rx_mon: 7501: vif.mrxd_pad_i=9
# SBD:7515 wr_queue rx data=f67025b8
# rx_drv: 7 phy_rx_mon: 7541: vif.mrxd_pad_i=e
# rx_drv: e phy_rx_mon: 7581: vif.mrxd_pad_i=7
# rx_drv: c phy_rx_mon: 7621: vif.mrxd_pad_i=e
# rx_drv: f phy_rx_mon: 7661: vif.mrxd_pad_i=c
# rx_drv: 1 phy_rx_mon: 7701: vif.mrxd_pad_i=f
# rx_drv: 2 phy_rx_mon: 7741: vif.mrxd_pad_i=1
# rx_drv: a phy_rx_mon: 7781: vif.mrxd_pad_i=2
# rx_drv: b phy_rx_mon: 7821: vif.mrxd_pad_i=a
# SBD:7835 wr_queue rx data=e709e9e7
# rx_drv: d phy_rx_mon: 7861: vif.mrxd_pad_i=b
# rx_drv: 6 phy_rx_mon: 7901: vif.mrxd_pad_i=d
# rx_drv: a phy_rx_mon: 7941: vif.mrxd_pad_i=6
# rx_drv: 6 phy_rx_mon: 7981: vif.mrxd_pad_i=a
# rx_drv: 5 phy_rx_mon: 8021: vif.mrxd_pad_i=6
# rx_drv: c phy_rx_mon: 8061: vif.mrxd_pad_i=5
# rx_drv: d phy_rx_mon: 8101: vif.mrxd_pad_i=c
# rx_drv: 4 phy_rx_mon: 8141: vif.mrxd_pad_i=d
# SBD:8155 wr_queue rx data=fc21ba6d
# rx_drv: 3 phy_rx_mon: 8181: vif.mrxd_pad_i=4
# rx_drv: 7 phy_rx_mon: 8221: vif.mrxd_pad_i=3
# rx_drv: b phy_rx_mon: 8261: vif.mrxd_pad_i=7
# rx_drv: e phy_rx_mon: 8301: vif.mrxd_pad_i=b
# rx_drv: 1 phy_rx_mon: 8341: vif.mrxd_pad_i=e
# rx_drv: 5 phy_rx_mon: 8381: vif.mrxd_pad_i=1
# rx_drv: 1 phy_rx_mon: 8421: vif.mrxd_pad_i=5
# rx_drv: 7 phy_rx_mon: 8461: vif.mrxd_pad_i=1
# SBD:8475 wr_queue rx data=6ac54d73
# rx_drv: d phy_rx_mon: 8501: vif.mrxd_pad_i=7
# rx_drv: 4 phy_rx_mon: 8541: vif.mrxd_pad_i=d
# rx_drv: 4 phy_rx_mon: 8581: vif.mrxd_pad_i=4
# rx_drv: c phy_rx_mon: 8621: vif.mrxd_pad_i=4
# rx_drv: 5 phy_rx_mon: 8661: vif.mrxd_pad_i=c
# rx_drv: 2 phy_rx_mon: 8701: vif.mrxd_pad_i=5
# rx_drv: 7 phy_rx_mon: 8741: vif.mrxd_pad_i=2
# rx_drv: 3 phy_rx_mon: 8781: vif.mrxd_pad_i=7
# SBD:8795 wr_queue rx data=eb51714d
# rx_drv: 0 phy_rx_mon: 8821: vif.mrxd_pad_i=3
# rx_drv: a phy_rx_mon: 8861: vif.mrxd_pad_i=0
# rx_drv: 5 phy_rx_mon: 8901: vif.mrxd_pad_i=a
# rx_drv: 1 phy_rx_mon: 8941: vif.mrxd_pad_i=5
# rx_drv: 0 phy_rx_mon: 8981: vif.mrxd_pad_i=1
# rx_drv: a phy_rx_mon: 9021: vif.mrxd_pad_i=0
# rx_drv: 9 phy_rx_mon: 9061: vif.mrxd_pad_i=a
# rx_drv: b phy_rx_mon: 9101: vif.mrxd_pad_i=9
# SBD:9115 wr_queue rx data=c42537a0
# rx_drv: 4 phy_rx_mon: 9141: vif.mrxd_pad_i=b
# rx_drv: 9 phy_rx_mon: 9181: vif.mrxd_pad_i=4
#  
# phy_rx_mon: 9221: vif.mrxd_pad_i=9
# rx_mon: delay+_timer_enable=0
############# MAC_SBD: DUT Received frame ###########
# ---------------------------------------------------------
# Name                 Type          Size  Value           
# ---------------------------------------------------------
# frame                eth_frame     -     @1477           
#   preamble           integral      56    'h55555555555555
#   sfd                integral      8     'hd5            
#   payload            da(integral)  96    -               
#     [0]              integral      8     'h43            
#     [1]              integral      8     'hd7            
#     [2]              integral      8     'h38            
#     [3]              integral      8     'h6f            
#     [4]              integral      8     'hf3            
#     ...              ...           ...   ...             
#     [91]             integral      8     'h4d            
#     [92]             integral      8     'hc4            
#     [93]             integral      8     'h25            
#     [94]             integral      8     'h37            
#     [95]             integral      8     'ha0            
#   crc                integral      32    'h15a0b994      
#   len                integral      32    'h0             
#   opcode             integral      16    'h0             
#   pause_timer        integral      16    'h0             
#   type_len           integral      16    'h0             
#   sa                 integral      48    'h0             
#   da                 integral      48    'h0             
#   pause_frame_delay  integral      32    'h0             
# ---------------------------------------------------------
# SBD:9435 wr_queue rx data=15a0b994
# UVM_INFO ../phy/phy_tx_mon.sv(37) @ 9501: uvm_test_top.env.phy_tx_agent_i.mon [TX_PKT] transmit packet 9501
############# MAC_SBD: DUT Transmitted frame ###########
# ---------------------------------------------------------
# Name                 Type          Size  Value           
# ---------------------------------------------------------
# frame                eth_frame     -     @1487           
#   preamble           integral      56    'h55555555555555
#   sfd                integral      8     'hd5            
#   payload            da(integral)  96    -               
#     [0]              integral      8     'h12            
#     [1]              integral      8     'h15            
#     [2]              integral      8     'h35            
#     [3]              integral      8     'h24            
#     [4]              integral      8     'h6             
#     ...              ...           ...   ...             
#     [91]             integral      8     'hc2            
#     [92]             integral      8     'h9             
#     [93]             integral      8     'hc             
#     [94]             integral      8     'hdb            
#     [95]             integral      8     'h12            
#   crc                integral      32    'h624c32e4      
#   len                integral      32    'h0             
#   opcode             integral      16    'h0             
#   pause_timer        integral      16    'h0             
#   type_len           integral      16    'h0             
#   sa                 integral      48    'h0             
#   da                 integral      48    'h0             
#   pause_frame_delay  integral      32    'h0             
# ---------------------------------------------------------
# wb_drv: interrupt genrated
# test_lib_fd_tx_rx: 9505
# rd_memory =12 15 35 24 6 b9 7b d 0 f3 e3 1 76 d4 57 ed e2 f7 84 c5 89 32 d6 12 f4 0 7a e8 96 ab 58 2d c0 3b 22 80 cb 20 3e 96 35 9f dd 6b e ff e9 1d e5 73 a ca 20 c4 b3 41 75 c5 d eb de 75 2 bc 42 f2 41 85 bf 23 32 7e 31 23 7 62 7c 6d a9 f8 ad cb c0 5b eb fe c0 d7 e1 2c ce c2 9 c db 12  
# UVM_INFO ../sbd/mac_sbd.sv(107) @ 9505: uvm_test_top.env.sbd [SBD_CHECK] DATA TX MATCH:mem_rd_data=12, frame data=12
# UVM_INFO ../sbd/mac_sbd.sv(107) @ 9505: uvm_test_top.env.sbd [SBD_CHECK] DATA TX MATCH:mem_rd_data=15, frame data=15
# UVM_INFO ../sbd/mac_sbd.sv(107) @ 9505: uvm_test_top.env.sbd [SBD_CHECK] DATA TX MATCH:mem_rd_data=35, frame data=35
# UVM_INFO ../sbd/mac_sbd.sv(107) @ 9505: uvm_test_top.env.sbd [SBD_CHECK] DATA TX MATCH:mem_rd_data=24, frame data=24
# UVM_INFO ../sbd/mac_sbd.sv(107) @ 9505: uvm_test_top.env.sbd [SBD_CHECK] DATA TX MATCH:mem_rd_data=6, frame data=6
# UVM_INFO ../sbd/mac_sbd.sv(107) @ 9505: uvm_test_top.env.sbd [SBD_CHECK] DATA TX MATCH:mem_rd_data=b9, frame data=b9
# UVM_INFO ../sbd/mac_sbd.sv(107) @ 9505: uvm_test_top.env.sbd [SBD_CHECK] DATA TX MATCH:mem_rd_data=7b, frame data=7b
# UVM_INFO ../sbd/mac_sbd.sv(107) @ 9505: uvm_test_top.env.sbd [SBD_CHECK] DATA TX MATCH:mem_rd_data=d, frame data=d
